…
And it is possible to use it with `reunions()`, like this

``` r
info <- get_info(2102)

reunions(info$codcol, info$start_date)
#> # A tibble: 46 × 4
#>    data       reuniao_dia Depoente.tema                  link                   
#>    <chr>            <int> <chr>                          <chr>                  
#>  1 2018-12-06          29 Apreciação do Relatório Final. http://www25.senado.le…
#>  2 2018-12-06          29 Apreciação do Relatório Final. http://www25.senado.le…
#>  3 2018-08-28          29 Deliberativa                   <NA>                   
#>  4 2018-08-21          29 Deliberativa                   <NA>                   
#>  5 2018-08-14          29 Deliberativa                   <NA>                   
#>  6 2018-07-12          28 Reunião de Trabalho            http://www25.senado.le…
#>  7 2018-07-11          28 Reunião de Trabalho            http://www25.senado.le…
#>  8 2018-07-04          27 Deliberativa                   http://www25.senado.le…
#>  9 2018-06-14          27 Coleta de Depoimentos.         <NA>                   
#> 10 2018-06-14          27 Deliberativa                   <NA>                   
#> # ℹ 36 more rows
```
…
``` r
df2606 <- reunioesDF[1:3,] |> get_all_tn()
#> running 1 of 2
#> Processando: 8, 1ª PARTE - Depoimento de Mauro Cesar Barbosa Cid, 2ª PARTE - Deliberativa". Analisando url: "http://www25.senado.leg.br/web/atividade/notas-taquigraficas/-/notas/r/11621"
#> Cod col: 2606
#> waiting 3 seconds until the next requisition
#> running 2 of 2
#> Processando: 8, 1ª PARTE - Depoimento de Mauro Cesar Barbosa Cid, 2ª PARTE - Deliberativa". Analisando url: "http://www25.senado.leg.br/web/atividade/notas-taquigraficas/-/notas/r/11621"
#> Cod col: 2606
#> waiting 3 seconds until the next requisition
df2606
#> # A tibble: 2,092 × 9
#>    reuniao data       nome  funcao_blocoPar BlocoParl partido estado complemento
#>    <chr>   <chr>      <chr> <chr>           <chr>     <chr>   <chr>  <chr>      
#>  1 8       2023-07-11 Arth… PRESIDENTE      (Arthur … UNIÃO   BA     "Fala da P…
#>  2 8       2023-07-11 MARC… (PL - RO)       (PL - RO) PL      RO     ""         
#>  3 8       2023-07-11 Arth… PRESIDENTE      (Arthur … UNIÃO   BA     ""         
#>  4 8       2023-07-11 MARC… (PL - RO)       (PL - RO) PL      RO     ""         
#>  5 8       2023-07-11 Arth… PRESIDENTE      (Arthur … UNIÃO   BA     ""         
#>  6 8       2023-07-11 MARC… (PL - RO)       (PL - RO) PL      RO     ""         
#>  7 8       2023-07-11 Arth… PRESIDENTE      (Arthur … UNIÃO   BA     ""         
#>  8 8       2023-07-11 MARC… (PL - RO. Pela… (PL - RO… PL      RO     "Pela orde…
#>  9 8       2023-07-11 Arth… PRESIDENTE      (Arthur … UNIÃO   BA     "Fazendo s…
#> 10 8       2023-07-11 MARC… (PL - RO)       (PL - RO) PL      RO     ""         
#> # ℹ 2,082 more rows
#> # ℹ 1 more variable: fala <chr>
```
…
